{
   "tracks":
   {
      "href": "https://api.spotify.com/v1/search?query=track%3AWeekend&type=track&market=US&offset=0&limit=1",
      "items": [
      {
         "album":
         {
            "album_type": "album",
            "artists": [
            {
               "external_urls":
               {
                  "spotify": "https://open.spotify.com/artist/7tYKF4w9nC0nq9CsPZTHyP"
               },
               "href": "https://api.spotify.com/v1/artists/7tYKF4w9nC0nq9CsPZTHyP",
               "id": "7tYKF4w9nC0nq9CsPZTHyP",
               "name": "SZA",
               "type": "artist",
               "uri": "spotify:artist:7tYKF4w9nC0nq9CsPZTHyP"
            }],
            "available_markets": [
               "AD",
               "AR",
               "AT",
               "AU",
               "BE",
               "BG",
               "BO",
               "BR",
               "CA",
               "CH",
               "CL",
               "CO",
               "CR",
               "CY",
               "CZ",
               "DE",
               "DK",
               "DO",
               "EC",
               "EE",
               "ES",
               "FI",
               "FR",
               "GB",
               "GR",
               "GT",
               "HK",
               "HN",
               "HU",
               "ID",
               "IE",
               "IS",
               "IT",
               "JP",
               "LI",
               "LT",
               "LU",
               "LV",
               "MC",
               "MT",
               "MX",
               "MY",
               "NI",
               "NL",
               "NO",
               "NZ",
               "PA",
               "PE",
               "PH",
               "PL",
               "PT",
               "PY",
               "SE",
               "SG",
               "SK",
               "SV",
               "TH",
               "TR",
               "TW",
               "US",
               "UY",
               "VN"
            ],
            "external_urls":
            {
               "spotify": "https://open.spotify.com/album/76290XdXVF9rPzGdNRWdCh"
            },
            "href": "https://api.spotify.com/v1/albums/76290XdXVF9rPzGdNRWdCh",
            "id": "76290XdXVF9rPzGdNRWdCh",
            "images": [
            {
               "height": 640,
               "url": "https://i.scdn.co/image/056d5d03db611ad1b9f00b1c3d19b7acf989b62e",
               "width": 640
            },
            {
               "height": 300,
               "url": "https://i.scdn.co/image/858107cdf591e0257617a751f331f7bc1debcfca",
               "width": 300
            },
            {
               "height": 64,
               "url": "https://i.scdn.co/image/160e5177a2c4a63d04f94f848fe88f0f3dbe871c",
               "width": 64
            }],
            "name": "Ctrl",
            "type": "album",
            "uri": "spotify:album:76290XdXVF9rPzGdNRWdCh"
         },
         "artists": [
         {
            "external_urls":
            {
               "spotify": "https://open.spotify.com/artist/7tYKF4w9nC0nq9CsPZTHyP"
            },
            "href": "https://api.spotify.com/v1/artists/7tYKF4w9nC0nq9CsPZTHyP",
            "id": "7tYKF4w9nC0nq9CsPZTHyP",
            "name": "SZA",
            "type": "artist",
            "uri": "spotify:artist:7tYKF4w9nC0nq9CsPZTHyP"
         }],
         "available_markets": [
            "AD",
            "AR",
            "AT",
            "AU",
            "BE",
            "BG",
            "BO",
            "BR",
            "CA",
            "CH",
            "CL",
            "CO",
            "CR",
            "CY",
            "CZ",
            "DE",
            "DK",
            "DO",
            "EC",
            "EE",
            "ES",
            "FI",
            "FR",
            "GB",
            "GR",
            "GT",
            "HK",
            "HN",
            "HU",
            "ID",
            "IE",
            "IS",
            "IT",
            "JP",
            "LI",
            "LT",
            "LU",
            "LV",
            "MC",
            "MT",
            "MX",
            "MY",
            "NI",
            "NL",
            "NO",
            "NZ",
            "PA",
            "PE",
            "PH",
            "PL",
            "PT",
            "PY",
            "SE",
            "SG",
            "SK",
            "SV",
            "TH",
            "TR",
            "TW",
            "US",
            "UY",
            "VN"
         ],
         "disc_number": 1,
         "duration_ms": 272186,
         "explicit": true,
         "external_ids":
         {
            "isrc": "USRC11701116"
         },
         "external_urls":
         {
            "spotify": "https://open.spotify.com/track/6gU9OKjOE7ghfEd55oRO57"
         },
         "href": "https://api.spotify.com/v1/tracks/6gU9OKjOE7ghfEd55oRO57",
         "id": "6gU9OKjOE7ghfEd55oRO57",
         "name": "The Weekend",
         "popularity": 81,
         "preview_url": "https://p.scdn.co/mp3-preview/4c112b50719f0d39deb0b9f1fa2601eb0555cc73?cid=910384155a20439582dabded7d7bcc4d",
         "track_number": 6,
         "type": "track",
         "uri": "spotify:track:6gU9OKjOE7ghfEd55oRO57"
      }],
      "limit": 1,
      "next": "https://api.spotify.com/v1/search?query=track%3AWeekend&type=track&market=US&offset=1&limit=1",
      "offset": 0,
      "previous": null,
      "total": 15057
   }
}

{
   "tracks":
   {
      "href": "https://api.spotify.com/v1/search?query=track%3AThe+Sign&type=track&market=US&offset=0&limit=1",
      "items": [
      {
         "album":
         {
            "album_type": "single",
            "artists": [
            {
               "external_urls":
               {
                  "spotify": "https://open.spotify.com/artist/6KImCVD70vtIoJWnq6nGn3"
               },
               "href": "https://api.spotify.com/v1/artists/6KImCVD70vtIoJWnq6nGn3",
               "id": "6KImCVD70vtIoJWnq6nGn3",
               "name": "Harry Styles",
               "type": "artist",
               "uri": "spotify:artist:6KImCVD70vtIoJWnq6nGn3"
            }],
            "available_markets": [
               "AD",
               "AR",
               "AT",
               "AU",
               "BE",
               "BG",
               "BO",
               "BR",
               "CA",
               "CH",
               "CL",
               "CO",
               "CR",
               "CY",
               "CZ",
               "DE",
               "DK",
               "DO",
               "EC",
               "EE",
               "ES",
               "FI",
               "FR",
               "GB",
               "GR",
               "GT",
               "HK",
               "HN",
               "HU",
               "ID",
               "IE",
               "IS",
               "IT",
               "JP",
               "LI",
               "LT",
               "LU",
               "LV",
               "MC",
               "MT",
               "MX",
               "MY",
               "NI",
               "NL",
               "NO",
               "NZ",
               "PA",
               "PE",
               "PH",
               "PL",
               "PT",
               "PY",
               "SG",
               "SK",
               "SV",
               "TH",
               "TR",
               "TW",
               "US",
               "UY",
               "VN"
            ],
            "external_urls":
            {
               "spotify": "https://open.spotify.com/album/6YDkzHVTEzMXZOVd1r5NqR"
            },
            "href": "https://api.spotify.com/v1/albums/6YDkzHVTEzMXZOVd1r5NqR",
            "id": "6YDkzHVTEzMXZOVd1r5NqR",
            "images": [
            {
               "height": 640,
               "url": "https://i.scdn.co/image/cbef6581b91bc170cce479f8deb70ff8f89958ee",
               "width": 640
            },
            {
               "height": 300,
               "url": "https://i.scdn.co/image/c03f6b3c99b853a124d5dbee28e2eacb9faadf8d",
               "width": 300
            },
            {
               "height": 64,
               "url": "https://i.scdn.co/image/7262616feb0f69e0188f491cbbb8fa6aee93231d",
               "width": 64
            }],
            "name": "Sign of the Times",
            "type": "album",
            "uri": "spotify:album:6YDkzHVTEzMXZOVd1r5NqR"
         },
         "artists": [
         {
            "external_urls":
            {
               "spotify": "https://open.spotify.com/artist/6KImCVD70vtIoJWnq6nGn3"
            },
            "href": "https://api.spotify.com/v1/artists/6KImCVD70vtIoJWnq6nGn3",
            "id": "6KImCVD70vtIoJWnq6nGn3",
            "name": "Harry Styles",
            "type": "artist",
            "uri": "spotify:artist:6KImCVD70vtIoJWnq6nGn3"
         }],
         "available_markets": [
            "AD",
            "AR",
            "AT",
            "AU",
            "BE",
            "BG",
            "BO",
            "BR",
            "CA",
            "CH",
            "CL",
            "CO",
            "CR",
            "CY",
            "CZ",
            "DE",
            "DK",
            "DO",
            "EC",
            "EE",
            "ES",
            "FI",
            "FR",
            "GB",
            "GR",
            "GT",
            "HK",
            "HN",
            "HU",
            "ID",
            "IE",
            "IS",
            "IT",
            "JP",
            "LI",
            "LT",
            "LU",
            "LV",
            "MC",
            "MT",
            "MX",
            "MY",
            "NI",
            "NL",
            "NO",
            "NZ",
            "PA",
            "PE",
            "PH",
            "PL",
            "PT",
            "PY",
            "SG",
            "SK",
            "SV",
            "TH",
            "TR",
            "TW",
            "US",
            "UY",
            "VN"
         ],
         "disc_number": 1,
         "duration_ms": 340706,
         "explicit": false,
         "external_ids":
         {
            "isrc": "USSM11703595"
         },
         "external_urls":
         {
            "spotify": "https://open.spotify.com/track/5ELRkzdzz0HvGpMDlfZHkV"
         },
         "href": "https://api.spotify.com/v1/tracks/5ELRkzdzz0HvGpMDlfZHkV",
         "id": "5ELRkzdzz0HvGpMDlfZHkV",
         "name": "Sign of the Times",
         "popularity": 79,
         "preview_url": "https://p.scdn.co/mp3-preview/9801b9239ad1b833f1317574ee55b9d7b8426ff1?cid=910384155a20439582dabded7d7bcc4d",
         "track_number": 1,
         "type": "track",
         "uri": "spotify:track:5ELRkzdzz0HvGpMDlfZHkV"
      }],
      "limit": 1,
      "next": "https://api.spotify.com/v1/search?query=track%3AThe+Sign&type=track&market=US&offset=1&limit=1",
      "offset": 0,
      "previous": null,
      "total": 5561
   }
}